Engine/Binaries/Win64/tbb.pdb	2023-10-04T16:03:57.709Z
Engine/Binaries/Win64/tbbmalloc.pdb	2023-10-04T16:03:57.711Z
Engine/Binaries/Win64/UnrealGame.pdb	2023-10-04T16:04:13.370Z
Engine/Content/SlateDebug/Fonts/LastResort.tps	2023-10-04T16:04:34.522Z
Engine/Content/SlateDebug/Fonts/LastResort.ttf	2023-10-04T16:04:34.540Z
Engine/Extras/GPUDumpViewer/GPUDumpViewer.html	2023-10-04T16:05:00.643Z
Engine/Extras/GPUDumpViewer/OpenGPUDumpViewer.bat	2023-10-04T16:05:00.643Z
Engine/Extras/GPUDumpViewer/OpenGPUDumpViewer.sh	2023-10-04T16:05:00.645Z
