{
	"AssetInfoVersion": 2,
	"ShaderCodeToAssets": [
		{
			"ShaderMapHash": "B52E1F00CCAED807C15A9AFC0F76A287B1CC8E00",
			"Assets": [
				"/Interchange/gltf/MaterialInstances/MI_Unlit_Opaque_DS"
			]
		},
		{
			"ShaderMapHash": "E887E2014001CC1284960B18E957C69EA9AE23FB",
			"Assets": [
				"/Interchange/gltf/MaterialInstances/MI_Unlit_Blend_DS"
			]
		},
		{
			"ShaderMapHash": "52694802CFDAE4D6032F13F3722AD2DF3347F2DD",
			"Assets": [
				"/Game/StarterContent/Materials/M_Concrete_Panels"
			]
		},
		{
			"ShaderMapHash": "C0797003FA7F3D09F560CA282674F733E2E8BA2D",
			"Assets": [
				"/Game/StarterContent/Materials/M_Metal_Copper"
			]
		},
		{
			"ShaderMapHash": "9B5F1205A792DB0D2E63E352DED5402A5C6B1241",
			"Assets": [
				"/Interchange/gltf/M_Unlit"
			]
		},
		{
			"ShaderMapHash": "DAA16F0712DC83866081B2AE5B58EBA8C1B0AA91",
			"Assets": [
				"/Interchange/gltf/MaterialInstances/MI_ClearCoat_Opaque_DS"
			]
		},
		{
			"ShaderMapHash": "583E3F09DA130AB2150236D4F6D187879634780A",
			"Assets": [
				"/Interchange/gltf/MaterialInstances/MI_Default_Opaque_DS"
			]
		},
		{
			"ShaderMapHash": "876A8509ADF6983AB6127289CBBB7B94B128028C",
			"Assets": [
				"/Engine/EngineMaterials/DefaultMaterial"
			]
		},
		{
			"ShaderMapHash": "29B9210B1CA6B1ECA7428A9CB4978304A570FB8A",
			"Assets": [
				"/Game/StarterContent/Materials/M_Metal_Rust"
			]
		},
		{
			"ShaderMapHash": "F54EAC0CE594FC54DDAD300113C81AC0194B83ED",
			"Assets": [
				"/Game/IndustryPropsPack6/Materials/Mi_Tarp01_2"
			]
		},
		{
			"ShaderMapHash": "4991530DBD5178A1C7F4F679EA52BC6F3586A809",
			"Assets": [
				"/Game/StarterContent/Materials/M_Concrete_Tiles"
			]
		},
		{
			"ShaderMapHash": "7AE2580EBD74FE47B2D3EC03BD6AAB66923CAB39",
			"Assets": [
				"/Game/StarterContent/Materials/M_Wood_Floor_Walnut_Polished"
			]
		},
		{
			"ShaderMapHash": "0E9B870EE770F0A6757B3651F19E1CF8527C81E8",
			"Assets": [
				"/Engine/EditorMeshes/ColorCalibrator/M_GreyBall"
			]
		},
		{
			"ShaderMapHash": "0B04B40E49BD5E920A5D27E53A91106ABB3C8987",
			"Assets": [
				"/Interchange/gltf/MaterialInstances/MI_Default_Mask_DS"
			]
		},
		{
			"ShaderMapHash": "58B1C50E2263C3F7A093B4636964549D4751AE2E",
			"Assets": [
				"/Interchange/gltf/MaterialInstances/MI_SpecularGlossiness_Blend_DS"
			]
		},
		{
			"ShaderMapHash": "F054F611C1D0DB0CF5E64624CDB40F0305465073",
			"Assets": [
				"/ControlRig/Controls/ControlRigXRayMaterial"
			]
		},
		{
			"ShaderMapHash": "5CD90E1218FE2BC26E44705469763671EB05FDCD",
			"Assets": [
				"/Engine/EngineMaterials/DefaultPostProcessMaterial"
			]
		},
		{
			"ShaderMapHash": "CEFB48128FF01D3C079FDA728288E4D700BB3D28",
			"Assets": [
				"/Interchange/gltf/M_Default"
			]
		},
		{
			"ShaderMapHash": "21D96813889AA55C4DB6BB0F011A7B58E7AB7BF3",
			"Assets": [
				"/Game/StarterContent/Props/Materials/M_Shelf"
			]
		},
		{
			"ShaderMapHash": "204FDB144C0C3576C7CE7B56E3D1C436DFB9B35D",
			"Assets": [
				"/Game/StarterContent/Materials/M_Brick_Clay_New"
			]
		},
		{
			"ShaderMapHash": "9D1EC815FCFE026ABCC343AD71D6F5DB7E15C7E3",
			"Assets": [
				"/Engine/EngineMaterials/PPM_DefaultCalibrationColor"
			]
		},
		{
			"ShaderMapHash": "C89A181834F9117B72D89A5AAA759CB8FDDDA6E5",
			"Assets": [
				"/Game/StarterContent/Materials/M_Concrete_Poured"
			]
		},
		{
			"ShaderMapHash": "ED3C7F18149F614CCCBAF4C23342728E4306A946",
			"Assets": [
				"/Engine/EngineMaterials/Widget3DPassThrough_Masked"
			]
		},
		{
			"ShaderMapHash": "3BB43C1BD1DE8D66FCE4D7F47FA7E493DD8D0038",
			"Assets": [
				"/Interchange/gltf/MaterialInstances/MI_Unlit_Blend"
			]
		},
		{
			"ShaderMapHash": "A191811C5DB5991557970E6B9CBEF420916FE415",
			"Assets": [
				"/Engine/VREditor/TransformGizmo/Main"
			]
		},
		{
			"ShaderMapHash": "E0B72E1E220B4807DCDF1B469A0FB2F77ED1FAAF",
			"Assets": [
				"/MeshModelingToolset/Materials/M_DynamicMeshComponentVtxColor"
			]
		},
		{
			"ShaderMapHash": "BDFABB1E9EBCA16BEF2804011D39C3A63DFFFBBF",
			"Assets": [
				"/Game/Untitled"
			]
		},
		{
			"ShaderMapHash": "26130621326E643DE16B1FD5E1507983025B44C7",
			"Assets": [
				"/Interchange/gltf/MaterialInstances/MI_Transmission_DS"
			]
		},
		{
			"ShaderMapHash": "6B087627966B66EC444186BFB3E28A0A5A44FB81",
			"Assets": [
				"/Interchange/gltf/M_ClearCoat"
			]
		},
		{
			"ShaderMapHash": "8A440A28073F8FFBA4CE78BC597A0A5503C3EA0A",
			"Assets": [
				"/Interchange/gltf/MaterialInstances/MI_ClearCoat_Mask_DS"
			]
		},
		{
			"ShaderMapHash": "4E2B722BED722EB6D7C590608CC5F5954CF65FE0",
			"Assets": [
				"/Engine/EngineMaterials/AntiAliasedTextMaterialTranslucent"
			]
		},
		{
			"ShaderMapHash": "5D9FA62C0D0FDACD6B36D41FD8D25DE55D64FFC3",
			"Assets": [
				"/Game/StarterContent/Materials/M_Ground_Moss"
			]
		},
		{
			"ShaderMapHash": "77A3A82E385E6CB932CCB6ADC60968FDF14BBDC8",
			"Assets": [
				"/Interchange/gltf/MaterialInstances/MI_ClearCoat_Blend"
			]
		},
		{
			"ShaderMapHash": "16D8FE2EF233FDCC4B274E69FED8F203150F0D68",
			"Assets": [
				"/Engine/EngineMaterials/PhAT_JointLimitMaterial"
			]
		},
		{
			"ShaderMapHash": "6D614538F3C428A3BEDF9864B2719F882314DF79",
			"Assets": [
				"/Game/Untitled/_Generated_/02G3VC0OIUP0LD7762RFEZFBB",
				"/Game/Untitled/_Generated_/0379JOXNFT79BP09JKJZD5RE0",
				"/Game/Untitled/_Generated_/17YP61CO6MMSBKJ9PXA1339ZL",
				"/Game/Untitled/_Generated_/1H2EA8TJMXWAOKZ8QGT2MK33D",
				"/Game/Untitled/_Generated_/1J5R7O3VJP7JBZXQQ49TVT1IP",
				"/Game/Untitled/_Generated_/1MMT89X3ZLMYCUB2ZC82WOHFN",
				"/Game/Untitled/_Generated_/1WB6J2EF0LSXHU9JNVFZDK65V",
				"/Game/Untitled/_Generated_/20YVD9GMSV3JD14CTRWU1T2VY",
				"/Game/Untitled/_Generated_/21D6O7AM0FKRDI2BH72NGX0F9",
				"/Game/Untitled/_Generated_/2525U6M58RSX25JBRTY85PPQJ",
				"/Game/Untitled/_Generated_/2XHWW2XWJE00MQY4SUWC02O13",
				"/Game/Untitled/_Generated_/32OXGJEE7PJP367INMGID41YM",
				"/Game/Untitled/_Generated_/3K8RZE62UID9ILG81GE6VVEI0",
				"/Game/Untitled/_Generated_/3WKC5FDABP02OQVK85I43ZM1J",
				"/Game/Untitled/_Generated_/3YDUHHCDOH1VW8GT4OQDHDXYL",
				"/Game/Untitled/_Generated_/4KNDET2CPWLY9E4U3AZTA907H",
				"/Game/Untitled/_Generated_/4ZDXACMPBTH050UYB4XC4Y0ZN",
				"/Game/Untitled/_Generated_/6Z3ZCQFV3P8UPCV7L8S452XQN",
				"/Game/Untitled/_Generated_/71R5XSRY2R2O4HKPBJ9HXL9RX",
				"/Game/Untitled/_Generated_/78GGO3FD4Z37UEOPTGXG3D5TM",
				"/Game/Untitled/_Generated_/7T5BQKIWAJDW6NHN72CMGM24K",
				"/Game/Untitled/_Generated_/7UZFQ4XS4S7ANDZ882BTI9BG3",
				"/Game/Untitled/_Generated_/8BNSMDFJ6L4S9PANZGGPYINIQ",
				"/Game/Untitled/_Generated_/8CR89NG4PWRRQYAOY2Q2EP06I",
				"/Game/Untitled/_Generated_/8G5XI0WB4O0HGOF34H77KWBE9",
				"/Game/Untitled/_Generated_/8HFLVJP6CNU85TEW2FVVJ2LUC",
				"/Game/Untitled/_Generated_/8WSYCL937QW11J7QE87IJKA7S",
				"/Game/Untitled/_Generated_/94GN1Q5P5RT5I8HPK7KJ5HLAX",
				"/Game/Untitled/_Generated_/9G2NHN19YMLWTHZD6K1YKU8G3",
				"/Game/Untitled/_Generated_/9K33N9ICUFYVCI28Q8O9OBM15",
				"/Game/Untitled/_Generated_/9NI84ERU4BKC5G3EY963X8KCV",
				"/Game/Untitled/_Generated_/A06ZVMJV54KM04QTA1VBZYKXS",
				"/Game/Untitled/_Generated_/AKNEBGJTLST66RZ9G813UJ6IC",
				"/Game/Untitled/_Generated_/ANXDKLXVTTFBEGNCCPNPF4TK4",
				"/Game/Untitled/_Generated_/ARS7Y8Y9IJ8J2MSTJM73UZA41",
				"/Game/Untitled/_Generated_/B7URR4QFE86CIE64NAX50AMQB",
				"/Game/Untitled/_Generated_/B8B6WKM7GZZ1A5MKJYQBZ07L1",
				"/Game/Untitled/_Generated_/B9222F9100W1DOYJBYXIFB4SF",
				"/Game/Untitled/_Generated_/BB30XAGT9I0L3VUWLRUVTM5G9",
				"/Game/Untitled/_Generated_/C1P56UMYF9F9S964NZAD5VTS3",
				"/Game/Untitled/_Generated_/C48E6LHO4M9Y6K5CT19ETSDTJ",
				"/Game/Untitled/_Generated_/CMNXIYP8BE9U2T3SKI4GGDFRI",
				"/Game/Untitled/_Generated_/D9CI9OQ9651Q9N6A03FRF9YBS",
				"/Game/Untitled/_Generated_/DBBQ9E4D5CZZ2EU1XG6O7K8TD",
				"/Game/Untitled/_Generated_/DQBLOH4EI5UTLTHHNYPU8GMWG",
				"/Game/Untitled/_Generated_/DQJXFM8GPAHKB28FMZYVX1G93",
				"/Game/Untitled/_Generated_/DYQRJTVS90VH4NJEDX5FDG3VJ",
				"/Game/Untitled/_Generated_/E9PZYGSVW1XLVVLRIDP77RM6J",
				"/Game/Untitled/_Generated_/ELZWFK2ATEV00ECFDZ7TFQI9V"
			]
		},
		{
			"ShaderMapHash": "6034C538A301AB33237CCDAC13B69B8FBFDC83FF",
			"Assets": [
				"/Engine/EngineMaterials/Widget3DPassThrough",
				"/Engine/EngineMaterials/Widget3DPassThrough_Translucent_OneSided"
			]
		},
		{
			"ShaderMapHash": "4E68E73C213DB8182D32EC6DFED98DEE438DABCB",
			"Assets": [
				"/Engine/EngineMaterials/DefaultDeferredDecalMaterial"
			]
		},
		{
			"ShaderMapHash": "ADF9783E451BBD6F426646EA73173D5A3143BC07",
			"Assets": [
				"/Engine/EngineSky/M_SimpleSkyDome"
			]
		},
		{
			"ShaderMapHash": "70A4C33ECF412B1BD24D096D33ECD40EE0F82123",
			"Assets": [
				"/Game/StarterContent/Materials/M_Metal_Brushed_Nickel"
			]
		},
		{
			"ShaderMapHash": "B42DFD3E6D57209A942B07F157D676BA3EAF29DA",
			"Assets": [
				"/Engine/EngineMaterials/DefaultLightFunctionMaterial"
			]
		},
		{
			"ShaderMapHash": "D4AC704086733E1F94768491B68EF179121B12A9",
			"Assets": [
				"/Game/StarterContent/Materials/M_Brick_Hewn_Stone"
			]
		},
		{
			"ShaderMapHash": "320CDD401E151F5CC714EE553957578BCA2EBF02",
			"Assets": [
				"/Engine/EngineMaterials/NaniteHiddenSectionMaterial"
			]
		},
		{
			"ShaderMapHash": "428196425AA220EDA5A5E28ACBD4BF917F63F12F",
			"Assets": [
				"/Interchange/gltf/MaterialInstances/MI_Sheen_Blend"
			]
		},
		{
			"ShaderMapHash": "330CC643A8ED7DA3556727C78310B524B6ED24B4",
			"Assets": [
				"/Engine/EngineMaterials/FlattenMaterial",
				"/Engine/EngineMaterials/FlattenMaterial_VT"
			]
		},
		{
			"ShaderMapHash": "39929646DBD5649A43AB72B500E78C7326430533",
			"Assets": [
				"/Interchange/gltf/MaterialInstances/MI_SpecularGlossiness_Blend"
			]
		},
		{
			"ShaderMapHash": "F947BB46D24933AD0A0B52715020378B1DC64153",
			"Assets": [
				"/Game/StarterContent/Materials/M_Wood_Oak"
			]
		},
		{
			"ShaderMapHash": "D1E73A47C48A1A9BC8D86CDD990611C9F55D2328",
			"Assets": [
				"/Game/StarterContent/Materials/M_Ground_Grass"
			]
		},
		{
			"ShaderMapHash": "33A8D147EF0375454C59CA6C643345594E75FFC7",
			"Assets": [
				"/Engine/EngineDebugMaterials/DebugMeshMaterial"
			]
		},
		{
			"ShaderMapHash": "D6680548DFE49C1A2C69FCA51FBB438448771FBD",
			"Assets": [
				"/Engine/EngineMaterials/GizmoMaterial"
			]
		},
		{
			"ShaderMapHash": "0033D34A2F4F97C97EA1816078772F0646E9EF89",
			"Assets": [
				"/Engine/EngineMaterials/Widget3DPassThrough_Masked_OneSided"
			]
		},
		{
			"ShaderMapHash": "A43F664C50E9B1E632B5F02E014F7BF7A992988D",
			"Assets": [
				"/Game/StarterContent/Blueprints/Assets/M_LightStage_Arrows"
			]
		},
		{
			"ShaderMapHash": "C3EFF94E20C84FE4F2449B2A1A03DF10F0EBD157",
			"Assets": [
				"/Game/IndustryPropsPack6/Materials/MI_Cartonbox01_1"
			]
		},
		{
			"ShaderMapHash": "5F8DD94F78FD4D802642B20F2944BD8B7310A567",
			"Assets": [
				"/Interchange/gltf/M_Sheen"
			]
		},
		{
			"ShaderMapHash": "AC87C155C4EF2B414A9478C42A3FC594020DDE1B",
			"Assets": [
				"/Game/StarterContent/Props/Materials/M_Bush"
			]
		},
		{
			"ShaderMapHash": "F3F16F580CCD0648A6CBAB1128925B2B2928062D",
			"Assets": [
				"/Engine/VREditor/SnapGrid/SnapGridMaterial"
			]
		},
		{
			"ShaderMapHash": "7A530D59EE47693D543D89F6C1612F47E6AA22A3",
			"Assets": [
				"/Game/StarterContent/Materials/M_Rock_Slate"
			]
		},
		{
			"ShaderMapHash": "700E135D1256C8207A75ED28A4B372D927235725",
			"Assets": [
				"/Game/StarterContent/Materials/M_Tech_Hex_Tile_Pulse"
			]
		},
		{
			"ShaderMapHash": "CD02A664925842D614153C18ACAC0A90BE2E1860",
			"Assets": [
				"/Game/StarterContent/Materials/M_Brick_Cut_Stone"
			]
		},
		{
			"ShaderMapHash": "3C137167C575C8DA5015D2FEDF150BB132E5ECA0",
			"Assets": [
				"/Engine/EngineMaterials/WorldGridMaterial"
			]
		},
		{
			"ShaderMapHash": "A904E767C40BEFEFD2AF9DA2A5F5CA09DFF28877",
			"Assets": [
				"/Engine/EngineMaterials/M_InvalidLightmapSettings"
			]
		},
		{
			"ShaderMapHash": "FD9D826A181223FFA8973616259762977E852C47",
			"Assets": [
				"/Interchange/gltf/MaterialInstances/MI_Default_Blend"
			]
		},
		{
			"ShaderMapHash": "53E46F6DF10064BA8EC6FE21E8D90D3C6072CE5C",
			"Assets": [
				"/Game/IndustryPropsPack6/Materials/MI_Tarp01_1"
			]
		},
		{
			"ShaderMapHash": "D0962070D1EFDB2EF2C93743A59B1348A655E422",
			"Assets": [
				"/SpeedTreeImporter/SpeedTree9/SpeedTreeMaster"
			]
		},
		{
			"ShaderMapHash": "96B030703B088BAEDCA5E8382DA0D8A3B402C1C6",
			"Assets": [
				"/Engine/EngineSky/VolumetricClouds/m_SimpleVolumetricCloud"
			]
		},
		{
			"ShaderMapHash": "D0CAB370B33CE7B7A3D3ED890BAF3FE11FEFAFBC",
			"Assets": [
				"/Engine/EngineMaterials/Widget3DPassThrough_Translucent"
			]
		},
		{
			"ShaderMapHash": "740413711F2A1C803FB93457CC3CD0001842435E",
			"Assets": [
				"/Game/StarterContent/Materials/M_Wood_Pine"
			]
		},
		{
			"ShaderMapHash": "979A4475E0B6772FE78F89F40310043023AB5238",
			"Assets": [
				"/Engine/EditorMaterials/Camera/CineMat"
			]
		},
		{
			"ShaderMapHash": "89B9A4768FF2D565C7CB6ADE5065924CDBB87CC6",
			"Assets": [
				"/Game/StarterContent/Props/Materials/M_Rock"
			]
		},
		{
			"ShaderMapHash": "B4E22A77A808B5C92EDACF7A872E94EE56798890",
			"Assets": [
				"/Game/StarterContent/Materials/M_Metal_Burnished_Steel"
			]
		},
		{
			"ShaderMapHash": "239FCE79F06C0BE9976135AC0D3B2783BE974F36",
			"Assets": [
				"/Engine/EngineSky/M_Sky_Panning_Clouds2"
			]
		},
		{
			"ShaderMapHash": "49D3FF7B126457D23C44BD8BE5C422C6045DBD70",
			"Assets": [
				"/Engine/EngineMaterials/FlattenMaterial_WS_Normal_VT",
				"/Game/Untitled"
			]
		},
		{
			"ShaderMapHash": "956C0B7C49BEEAFF7AB319D3F29EFDFB03928D4E",
			"Assets": [
				"/Interchange/gltf/MaterialInstances/MI_SpecularGlossiness_Mask_DS"
			]
		},
		{
			"ShaderMapHash": "C5640D7CF09079AE4ECB38C51A5FB75F45949787",
			"Assets": [
				"/Interchange/gltf/MaterialInstances/MI_Sheen_Mask_DS"
			]
		},
		{
			"ShaderMapHash": "2033EC7EF2F02F8F151BC50FCF374C6AE7DCC64C",
			"Assets": [
				"/Game/IndustryPropsPack6/Materials/BaseMaterial/M_base",
				"/Game/IndustryPropsPack6/Materials/MI_Newspaper01_1"
			]
		},
		{
			"ShaderMapHash": "0EA1227FF5CE7CF1859E669782B686D5C2EF0693",
			"Assets": [
				"/Interchange/gltf/MaterialInstances/MI_Sheen_Blend_DS"
			]
		},
		{
			"ShaderMapHash": "ABFF267F4A5A10C4D79AF096123116690BC088D5",
			"Assets": [
				"/Engine/EngineMaterials/PPM_DefaultCalibrationGrayscale"
			]
		},
		{
			"ShaderMapHash": "C586BE7F54966971C43CE49B45EEF7294C6E3BBD",
			"Assets": [
				"/Game/StarterContent/Materials/M_Rock_Sandstone"
			]
		},
		{
			"ShaderMapHash": "E45CD680629F8233817788E10934FB10874F608E",
			"Assets": [
				"/Game/StarterContent/Particles/Materials/M_Fire_SubUV"
			]
		},
		{
			"ShaderMapHash": "70F41084DC7274E8BDC9D6CA5F79A8B4A8BA00A5",
			"Assets": [
				"/Engine/EngineMaterials/Widget3DPassThrough_Opaque_OneSided"
			]
		},
		{
			"ShaderMapHash": "C051288970DC39F008F79847BF3577DD6CF97289",
			"Assets": [
				"/Game/StarterContent/Materials/M_Wood_Walnut"
			]
		},
		{
			"ShaderMapHash": "19E7978A09A6FD5683609A11554DF585A7F12BC1",
			"Assets": [
				"/Game/IndustryPropsPack6/Materials/MI_Box01_4"
			]
		},
		{
			"ShaderMapHash": "BB4C6B8DC8BE342B30E1311283B3B3277FF48BA2",
			"Assets": [
				"/Game/StarterContent/Particles/Materials/M_smoke_subUV"
			]
		},
		{
			"ShaderMapHash": "D674888DB57FDEEF69631175192661BDE7DBB083",
			"Assets": [
				"/Interchange/gltf/MaterialInstances/MI_Unlit_Mask"
			]
		},
		{
			"ShaderMapHash": "D0DCED8EC9F604EA51AE738BB27EC4217A980223",
			"Assets": [
				"/Game/StarterContent/Materials/M_CobbleStone_Smooth"
			]
		},
		{
			"ShaderMapHash": "8E6A1B91D09F3780A3EDFD525A30740F3D12D4EB",
			"Assets": [
				"/Game/StarterContent/Materials/M_CobbleStone_Pebble"
			]
		},
		{
			"ShaderMapHash": "AB7F5F918EB9886C8E52123DCC8A045AF8F02874",
			"Assets": [
				"/Engine/EngineDebugMaterials/DebugEditorMaterial"
			]
		},
		{
			"ShaderMapHash": "D0B27E91A8140BCA61EFE5503623AE0F890A2F05",
			"Assets": [
				"/Engine/EngineDebugMaterials/M_SimpleUnlitTranslucent"
			]
		},
		{
			"ShaderMapHash": "8C518D9144002A1E1131D16B1A1C751B450A7142",
			"Assets": [
				"/Game/StarterContent/Materials/M_Metal_Chrome"
			]
		},
		{
			"ShaderMapHash": "9A805098C42C67B3FA48E9A48F53CADC3E7E5366",
			"Assets": [
				"/Interchange/gltf/MaterialInstances/MI_Sheen_Opaque_DS"
			]
		},
		{
			"ShaderMapHash": "440ED4980DEEA500D2DC86924A327CCE27EE245C",
			"Assets": [
				"/Engine/EngineMaterials/RemoveSurfaceMaterial",
				"/Game/StarterContent/Blueprints/Assets/M_LightStage_Skybox_Master"
			]
		},
		{
			"ShaderMapHash": "AFF4069943148BEDEFB850C29CE2AA9947255EAE",
			"Assets": [
				"/ControlRig/M_Manip"
			]
		},
		{
			"ShaderMapHash": "F435529A87BD4E175C3A0711F241BC90D40E233C",
			"Assets": [
				"/Game/StarterContent/Materials/M_Concrete_Grime"
			]
		},
		{
			"ShaderMapHash": "82E6DC9C596DD6AAA8C097ED02381484874420E5",
			"Assets": [
				"/Paper2D/OpaqueUnlitSpriteMaterial"
			]
		},
		{
			"ShaderMapHash": "3B99809D14C4D259B7784DF55CBA69D65AE58DAD",
			"Assets": [
				"/Engine/EditorMeshes/ColorCalibrator/M_ClearCoat"
			]
		},
		{
			"ShaderMapHash": "4F48E19DF3172983B3D6065AB55C963297C0572F",
			"Assets": [
				"/Engine/EditorMeshes/ColorCalibrator/M_ChromeBall"
			]
		},
		{
			"ShaderMapHash": "4E24359F43308B88D59C8C3FADEBCDCFF984691B",
			"Assets": [
				"/Game/StarterContent/Materials/M_Basic_Floor"
			]
		},
		{
			"ShaderMapHash": "7BDC1FA06BE59BF740629282C15475DC3B0B5935",
			"Assets": [
				"/Engine/EngineDebugMaterials/M_VolumeRenderSphereTracePP"
			]
		},
		{
			"ShaderMapHash": "533210A191DDE777697662714A8C479C4C8D8B94",
			"Assets": [
				"/Engine/EditorMaterials/PreviewShadowIndicatorMaterial"
			]
		},
		{
			"ShaderMapHash": "4C6DACA1E2AA4B4DEA225B86D582B9EBF63D075D",
			"Assets": [
				"/Game/StarterContent/Materials/M_Ceramic_Tile_Checker"
			]
		},
		{
			"ShaderMapHash": "1E4ED1A29727336C936A547960387ADCF387172A",
			"Assets": [
				"/Game/StarterContent/Particles/Materials/M_Dust_Particle"
			]
		},
		{
			"ShaderMapHash": "99B01AA5A2F00069623E290F84799966F67E5E9B",
			"Assets": [
				"/Game/StarterContent/Materials/M_Tech_Hex_Tile"
			]
		},
		{
			"ShaderMapHash": "80DC7CA5311B7F75C9AF6538C9B05734E6284BD7",
			"Assets": [
				"/Engine/EditorMaterials/Thumbnails/SkySphereMaterial"
			]
		},
		{
			"ShaderMapHash": "692389A75B5109021BE32D6C36AEA793B20F95AA",
			"Assets": [
				"/Game/StarterContent/Materials/M_Brick_Clay_Old"
			]
		},
		{
			"ShaderMapHash": "53F2DEA972C2DDB2429EEAAFDCD50BDA396F1D6D",
			"Assets": [
				"/Game/StarterContent/Materials/M_Basic_Wall"
			]
		},
		{
			"ShaderMapHash": "A5CE02AA1919034884AB44BA74CCC4107EE97F2C",
			"Assets": [
				"/Game/StarterContent/Props/Materials/M_Lamp"
			]
		},
		{
			"ShaderMapHash": "6FA6CBAA94F9932F3956C837B611DDBE8AADBF60",
			"Assets": [
				"/Game/IndustryPropsPack6/Textures/BaseTextures/BG_Mat"
			]
		},
		{
			"ShaderMapHash": "6E9242ABE9CF09ED3921E217B6CD22050BF13DF0",
			"Assets": [
				"/Game/StarterContent/Props/Materials/M_Chair"
			]
		},
		{
			"ShaderMapHash": "2AE5C0AB677058B151304286BCABB0A5DB5E0C34",
			"Assets": [
				"/Interchange/gltf/MaterialInstances/MI_Unlit_Mask_DS"
			]
		},
		{
			"ShaderMapHash": "B58A59AFE0A55F08A0E49572FD84AF8A387460AD",
			"Assets": [
				"/Game/StarterContent/Props/Materials/M_Door"
			]
		},
		{
			"ShaderMapHash": "1C18ECB026FB1D7146E4C89DB5D1165D012792C3",
			"Assets": [
				"/Game/StarterContent/Particles/Materials/M_Heat_Distortion"
			]
		},
		{
			"ShaderMapHash": "8710B1B1B89E3E88EE5B7708956B77B5FA62CA5C",
			"Assets": [
				"/Game/StarterContent/Materials/M_Glass"
			]
		},
		{
			"ShaderMapHash": "B4A652B2EF30530FBA5A3F4AB2A1B9444E444D7E",
			"Assets": [
				"/Game/IndustryPropsPack6/Materials/MI_Hose01_2"
			]
		},
		{
			"ShaderMapHash": "665203B45CE5CC6EF23EE059176DD6B9631174D9",
			"Assets": [
				"/Game/StarterContent/Materials/M_AssetPlatform"
			]
		},
		{
			"ShaderMapHash": "B3602CB5BE34B235EC8ACE178C59D95B6347228F",
			"Assets": [
				"/Engine/EngineMaterials/EmissiveMeshMaterial"
			]
		},
		{
			"ShaderMapHash": "8D2BDBB6398C817C262F8B22682F510288DD0506",
			"Assets": [
				"/Engine/EditorMeshes/ColorCalibrator/M_ColorGrid"
			]
		},
		{
			"ShaderMapHash": "E481CCB7C33FB683C9F6B3A7CED8388CC44FA3A9",
			"Assets": [
				"/Game/IndustryPropsPack6/Materials/MI_Newspaper01_2"
			]
		},
		{
			"ShaderMapHash": "87FAE0B805035A70425A4B812EAEE19BF8B5AF02",
			"Assets": [
				"/Engine/EditorMeshes/ColorCalibrator/M_ClearCoatBlack"
			]
		},
		{
			"ShaderMapHash": "E3780AB90509F0D202291E2324BAE8E831143E70",
			"Assets": [
				"/Interchange/gltf/MaterialInstances/MI_SpecularGlossiness_Mask"
			]
		},
		{
			"ShaderMapHash": "A8F70BBC8D0E6390FDB99BB02A4D1227A49B19CA",
			"Assets": [
				"/Game/IndustryPropsPack6/Materials/MI_Rack01_1"
			]
		},
		{
			"ShaderMapHash": "2CDB9EBDB3F727864650AFF453584C167E72D925",
			"Assets": [
				"/Game/StarterContent/Materials/M_Metal_Gold"
			]
		},
		{
			"ShaderMapHash": "C55577BEF4B2F1514975C72E2901C65762EF507D",
			"Assets": [
				"/Game/StarterContent/Particles/Materials/M_explosion_subUV"
			]
		},
		{
			"ShaderMapHash": "5244E4C04F1BF4784CB5AD292C9EDEBD9B6482B7",
			"Assets": [
				"/Game/StarterContent/Particles/Materials/m_flare_01"
			]
		},
		{
			"ShaderMapHash": "B37A0FC2D0066361BD45878920D602BB436D9415",
			"Assets": [
				"/Game/IndustryPropsPack6/Materials/MI_Gray"
			]
		},
		{
			"ShaderMapHash": "2B8F69C215EBFD12AAF73B462E9B4CABD3858E88",
			"Assets": [
				"/Interchange/gltf/M_SpecularGlossiness"
			]
		},
		{
			"ShaderMapHash": "1873EAC90491014DB48003F0EF5605E409E71914",
			"Assets": [
				"/Game/StarterContent/Props/Materials/M_Statue"
			]
		},
		{
			"ShaderMapHash": "38D40CCAEB82E9EB230018255E3E3485A98C9E5B",
			"Assets": [
				"/Interchange/gltf/M_Transmission"
			]
		},
		{
			"ShaderMapHash": "F56180CA90B8D79FAA34D1163C24C042E6A5169A",
			"Assets": [
				"/Game/IndustryPropsPack6/Materials/MI_Barrel01_3"
			]
		},
		{
			"ShaderMapHash": "5BEAA9CB39711C335230B055AEC3243143E32675",
			"Assets": [
				"/Engine/VREditor/TransformGizmo/TranslucentTransformGizmoMaterial"
			]
		},
		{
			"ShaderMapHash": "E3E28DCC23B91583170180881B052C88A5A1E94C",
			"Assets": [
				"/Engine/EditorLandscapeResources/SplineEditorMeshMat"
			]
		},
		{
			"ShaderMapHash": "EBAEFECCFC4E50FF19AC419C49B025E1E52A54D3",
			"Assets": [
				"/Game/StarterContent/Materials/M_Water_Lake"
			]
		},
		{
			"ShaderMapHash": "909D52CE0D28585423ED13F15C15910934259917",
			"Assets": [
				"/Game/StarterContent/Materials/M_Rock_Basalt"
			]
		},
		{
			"ShaderMapHash": "3C0DEED0709F398DE3AB4907A07DD1621D1B8079",
			"Assets": [
				"/Game/IndustryPropsPack6/Materials/MI_Box01_3"
			]
		},
		{
			"ShaderMapHash": "CDD6F6D0AAACD600E94525FBEEA46E214381CE46",
			"Assets": [
				"/Engine/EditorMaterials/PhAT_UnselectedMaterial"
			]
		},
		{
			"ShaderMapHash": "D0F0D7D24C8F9013BB678AF2D8F1835B9CBE52F2",
			"Assets": [
				"/Game/StarterContent/Materials/M_Water_Ocean"
			]
		},
		{
			"ShaderMapHash": "11ED05D38F0548DC408B69439C59827035221BD2",
			"Assets": [
				"/Game/StarterContent/Props/Materials/M_StatueGlass"
			]
		},
		{
			"ShaderMapHash": "80145DD3CE4EA6C8CB52E990BD3184CCAA0262F9",
			"Assets": [
				"/Game/StarterContent/Materials/M_Wood_Floor_Walnut_Worn"
			]
		},
		{
			"ShaderMapHash": "3E481FD556500629B5BD4D42760074172FAB0947",
			"Assets": [
				"/Engine/EditorMaterials/PhAT_NoCollisionMaterial"
			]
		},
		{
			"ShaderMapHash": "0DFB84D5C5ADF5BACD5B35C0EEAF77BABA71705F",
			"Assets": [
				"/Game/StarterContent/Props/Materials/M_Frame"
			]
		},
		{
			"ShaderMapHash": "D0F0ADD981E98C754967A2D65578BE04D0215239",
			"Assets": [
				"/Engine/VREditor/TransformGizmo/TransformGizmoMaterial"
			]
		},
		{
			"ShaderMapHash": "8E38FCD94785BAFBD8448A3D37057D3B339EE3D3",
			"Assets": [
				"/Paper2D/DefaultSpriteMaterial"
			]
		},
		{
			"ShaderMapHash": "8B0C3BDACCAD954D470320E27BC331BFB3B44FDD",
			"Assets": [
				"/Engine/OpenWorldTemplate/LandscapeMaterial/M_ProcGrid"
			]
		},
		{
			"ShaderMapHash": "72EC7BDAD09DA1D11A061501F3633475AB25C185",
			"Assets": [
				"/Game/IndustryPropsPack6/Materials/MI_WaterTank01"
			]
		},
		{
			"ShaderMapHash": "C11799DBC510DDA5EDAF8DA24DC7A63CF0959A6A",
			"Assets": [
				"/Interchange/gltf/MaterialInstances/MI_ClearCoat_Mask"
			]
		},
		{
			"ShaderMapHash": "DEEA8BDDD6FCD7EDF08CED376C037CC3DA9D024B",
			"Assets": [
				"/Game/StarterContent/Materials/M_Rock_Marble_Polished"
			]
		},
		{
			"ShaderMapHash": "CFAC96DD12B69767ED3D99F2348D5D9BAF0ABFC2",
			"Assets": [
				"/Game/StarterContent/Materials/M_Tech_Checker_Dot"
			]
		},
		{
			"ShaderMapHash": "FF1459DF79C16FFF982BBFEFCA2F91074D0BB4FC",
			"Assets": [
				"/Engine/EngineMaterials/DefaultTextMaterialOpaque"
			]
		},
		{
			"ShaderMapHash": "F9506EDF1C4EFA38AC0002A537C3173507C6B07F",
			"Assets": [
				"/Engine/VREditor/TransformGizmo/Xray"
			]
		},
		{
			"ShaderMapHash": "BB769FDF9C2E1BA32E3E16092E4CB048A4E52318",
			"Assets": [
				"/Game/StarterContent/Materials/M_Metal_Steel"
			]
		},
		{
			"ShaderMapHash": "65FBD0DFF73E7C54B12EC2C970C53BC45367E55A",
			"Assets": [
				"/Game/StarterContent/Particles/Materials/M_Burst"
			]
		},
		{
			"ShaderMapHash": "E74C3AE1977BE47D188CD23358E169CBB2239DEB",
			"Assets": [
				"/Engine/EngineMaterials/Widget3DPassThrough_Opaque"
			]
		},
		{
			"ShaderMapHash": "8599D5E28511A4F5740673E2AF8965ACFC2D5715",
			"Assets": [
				"/SpeedTreeImporter/SpeedTree9/SpeedTreeBillboardMaster"
			]
		},
		{
			"ShaderMapHash": "D91411E357762DE94CA1C5A57CB5B379F4898FC2",
			"Assets": [
				"/Game/IndustryPropsPack6/Textures/T_Box01_Mat"
			]
		},
		{
			"ShaderMapHash": "8FC747E37AB725E3F60F54292C29790FF5274180",
			"Assets": [
				"/Interchange/gltf/MaterialInstances/MI_Sheen_Mask"
			]
		},
		{
			"ShaderMapHash": "EDBB9BE3C0E4F7EB69777F0D36918A35F5A6ED50",
			"Assets": [
				"/Game/IndustryPropsPack6/Materials/MI_Barrel01_4"
			]
		},
		{
			"ShaderMapHash": "3C5307E4DC456AD8FFAA0D872DC00E981D68EF3C",
			"Assets": [
				"/Game/StarterContent/Particles/Materials/M_Spark"
			]
		},
		{
			"ShaderMapHash": "E4A4E5E67847D09CA9AE5A65D8C046C47EE8E90B",
			"Assets": [
				"/Game/StarterContent/Materials/M_Brick_Clay_Beveled"
			]
		},
		{
			"ShaderMapHash": "5C75E1E7E38D63E0B99803C5000632CA7B951FC1",
			"Assets": [
				"/Game/StarterContent/Particles/Materials/M_Radial_Gradient",
				"/Game/StarterContent/Particles/Materials/M_radial_ramp"
			]
		},
		{
			"ShaderMapHash": "257B90E9BFE78EB9E438BC2773C8F8B79CDC0037",
			"Assets": [
				"/Game/StarterContent/Blueprints/Assets/M_LightStage_Skybox_HDRI"
			]
		},
		{
			"ShaderMapHash": "A45F21EA847110983D89AA88DFFD5A347B4D0006",
			"Assets": [
				"/Game/IndustryPropsPack6/Materials/MI_Barrel01_6"
			]
		},
		{
			"ShaderMapHash": "539531EB262A5E32B3073230273C87A1AB1A11AF",
			"Assets": [
				"/Game/IndustryPropsPack6/Materials/MI_Cartonbox01_2"
			]
		},
		{
			"ShaderMapHash": "BAFE0FEDE4B49C46826A735A271AB7B047C287D9",
			"Assets": [
				"/Engine/BasicShapes/BasicShapeMaterial"
			]
		},
		{
			"ShaderMapHash": "4927A6EE827CB91675EF41CFDDA067ADA2E25093",
			"Assets": [
				"/Interchange/gltf/MaterialInstances/MI_Default_Mask"
			]
		},
		{
			"ShaderMapHash": "1B544AEF7B95534DA88CF2C8CE36D7FFB1A699FA",
			"Assets": [
				"/Game/StarterContent/Materials/M_ColorGrid_LowSpec"
			]
		},
		{
			"ShaderMapHash": "56EB35F06E82CB6E4005E3383B2D219C018B27DB",
			"Assets": [
				"/Game/StarterContent/Materials/M_Tech_Panel"
			]
		},
		{
			"ShaderMapHash": "C8408DF23F7336846ACC1AB86DC86D3B330A0B19",
			"Assets": [
				"/Game/IndustryPropsPack6/Textures/BaseTextures/TC_HDR01_Mat"
			]
		},
		{
			"ShaderMapHash": "DFBE4FF41D0860BA039BFE868876556041597B03",
			"Assets": [
				"/Game/StarterContent/Materials/M_Ground_Gravel"
			]
		},
		{
			"ShaderMapHash": "FF1145F6A7D2C96D666CB7F3A5DFD7F11B0D3512",
			"Assets": [
				"/ControlRig/Controls/ControlRigGizmoMaterial"
			]
		},
		{
			"ShaderMapHash": "A663A9F61C29D8CCDB6E03BCB1A82462AEC76E7C",
			"Assets": [
				"/Game/StarterContent/Materials/M_CobbleStone_Rough"
			]
		},
		{
			"ShaderMapHash": "CA72D0F7944C4563C70D133F64977044A60EBE0B",
			"Assets": [
				"/Interchange/gltf/MaterialInstances/MI_ClearCoat_Blend_DS"
			]
		},
		{
			"ShaderMapHash": "9CC9BCFB1252CD82B805F55F219E2DC1B1C5BCF4",
			"Assets": [
				"/Interchange/gltf/MaterialInstances/MI_Default_Blend_DS"
			]
		},
		{
			"ShaderMapHash": "9F7AA6FD9E1FB9EC7BC35C7BCF6EB83B7AA3F46F",
			"Assets": [
				"/Interchange/gltf/MaterialInstances/MI_SpecularGlossiness_Opaque_DS"
			]
		},
		{
			"ShaderMapHash": "842EE6FDAE5A8D4EB4A3BBE0D808B0F32943FD9A",
			"Assets": [
				"/Game/StarterContent/Props/Materials/M_TableRound"
			]
		}
	]
}